-----BEGIN PGP SIGNATURE-----

iQGzBAABCgAdFiEETLq3vtb5Wf+k9SW20gXskrNSgDoFAmIyQGIACgkQ0gXskrNS
gDoGrwwAnRWeqfH4rSICBXcXkQPWUwq+ZwrnEyJB/VJdLLk+03E1WTg9GhhNaDhU
Qsv/eMGv0wKX1klk7C/JeTuqVKlfam3lgjuEnnvVGmINmGMdDMcZ1BrPFZU6/OrL
OVH1gjaGivPvUf0B69edTqaTqtFIMfCdYOODfbstig84IG4AJY8vVBRHBv7pKeiN
fetj26wL02zhi4v+qGVnjUgIQfqLK/CD1OzWCIDBClMO6SD0PgOPnXGzvpegFF+j
sdrCDPS3Mc3KO2NLtYLMHP6zcFaJGMSjxPExff3HXPMAakZaBXXfIyON2zdYNg2V
OOjy1u6qYZKMkAafia6KK9juLDRX3+adeIw40H4RoE6ABB7UZwqkQTlTgo8lE1dB
p00L11EMiQrLK344xO2JlFAYmuCVJmIoknHG2EDBoEP/Ltdvxrj7C+yV65rvSfjh
yizA/+RmeHD+ZGZtKpRMabVk9feAY7ezd4j/p3HNuzAQWW21zx+rUAgeydyf6sE4
50RABdz4
=UUCn
-----END PGP SIGNATURE-----
